..........
----------------------------------------------------------------------
Ran 10 tests in 0.001s

OK
Name               Stmts   Miss Branch BrPart  Cover   Missing
--------------------------------------------------------------
Diplomacy.py          74      0     54      1    99%   61->54
TestDiplomacy.py      54      0      0      0   100%
--------------------------------------------------------------
TOTAL                128      0     54      1    99%
